{
  "EDITOR_STATE": {
    "allProjectFiles": {
      "fd065029-7661-4178-a655-22b67663a22a": {
        "id": "fd065029-7661-4178-a655-22b67663a22a",
        "parent": null,
        "name": "testloadingprojects",
        "type": "DIRECTORY",
        "isDirectory": true,
        "children": [
          "f8588864-84e9-43c4-8ff5-38456bcf2545"
        ],
        "isRemovable": false,
        "filePath": "testloadingprojects"
      },
      "f8588864-84e9-43c4-8ff5-38456bcf2545": {
        "id": "f8588864-84e9-43c4-8ff5-38456bcf2545",
        "parent": "fd065029-7661-4178-a655-22b67663a22a",
        "name": "lambda.js",
        "type": "JS_LAMBDA",
        "isDirectory": false,
        "children": [],
        "isRemovable": true,
        "filePath": "testloadingprojects/lambda.js",
        "code": "exports.handler = function(event, context, callback) {\n    //retest440\n    callback(null, {\"message\": \"Successfully executed\"});\n}",
        "config": {
          "runtime": "nodejs8.10",
          "handler": "handler",
          "timeout": 60,
          "memory": 128,
          "layers": []
        },
        "triggers": []
      }
    },
    "deletedFiles": [],
    "rootNode": "fd065029-7661-4178-a655-22b67663a22a",
    "openFiles": [
      "f8588864-84e9-43c4-8ff5-38456bcf2545"
    ],
    "currentFileId": "f8588864-84e9-43c4-8ff5-38456bcf2545",
    "resources": {},
    "customTemplate": {
      "dialect": null,
      "definitions": {}
    },
    "envVariables": [
      {
        "lambdaId": "all",
        "varKey": "SIGMA_AWS_ACC_ID",
        "varValue": null,
        "shouldPersist": false,
        "displayOnly": false,
        "editable": false
      }
    ],
    "packageJSON": {
      "dependencies": {}
    }
  },
  "PROJECT_META": {
    "projectName": "testloadingprojects",
    "projectDescription": "",
    "projectVersion": "1.0.0",
    "projectRegion": "us-east-1",
    "platform": "AWS",
    "platformRegions": {},
    "lastSave": 1559633422475
  },
  "VCS_STATE": {
    "provider": "BitBucket",
    "repo": {
      "name": "testloadingprojects",
      "url": "https://bitbucket.org/KumudikaR/differentprojectreponames"
    }
  }
}